projects/verilog_encryption_project/quartus_projects/uart_v2/simulation/modelsim/dump.vcd
$date
	Wed Dec 07 14:02:58 2022
$end
$version
	ModelSim Version 10.5b
$end
$timescale
	1ps
$end

$scope module uart_tx_test $end
$var reg 8 ! data [7:0] $end
$var reg 1 " clk $end
$var reg 1 # enable $end
$var wire 1 $ tx_busy $end
$var wire 1 % rdy $end
$var wire 1 & rxdata [7] $end
$var wire 1 ' rxdata [6] $end
$var wire 1 ( rxdata [5] $end
$var wire 1 ) rxdata [4] $end
$var wire 1 * rxdata [3] $end
$var wire 1 + rxdata [2] $end
$var wire 1 , rxdata [1] $end
$var wire 1 - rxdata [0] $end
$var wire 1 . loopback $end
$var reg 1 / rdy_clr $end

$scope module test_uart $end
$var wire 1 0 din [7] $end
$var wire 1 1 din [6] $end
$var wire 1 2 din [5] $end
$var wire 1 3 din [4] $end
$var wire 1 4 din [3] $end
$var wire 1 5 din [2] $end
$var wire 1 6 din [1] $end
$var wire 1 7 din [0] $end
$var wire 1 8 wr_en $end
$var wire 1 9 clk_50m $end
$var wire 1 . tx $end
$var wire 1 $ tx_busy $end
$var wire 1 . rx $end
$var wire 1 : rdy_clr $end
$var wire 1 % rdy $end
$var wire 1 & dout [7] $end
$var wire 1 ' dout [6] $end
$var wire 1 ( dout [5] $end
$var wire 1 ) dout [4] $end
$var wire 1 * dout [3] $end
$var wire 1 + dout [2] $end
$var wire 1 , dout [1] $end
$var wire 1 - dout [0] $end
$var wire 1 ; rxclk_en $end
$var wire 1 < txclk_en $end

$scope module uart_baud $end
$var parameter 32 = RX_ACC_MAX $end
$var parameter 32 > TX_ACC_MAX $end
$var parameter 32 ? RX_ACC_WIDTH $end
$var parameter 32 @ TX_ACC_WIDTH $end
$var wire 1 9 clk_50m $end
$var wire 1 ; rxclk_en $end
$var wire 1 < txclk_en $end
$var reg 5 A rx_acc [4:0] $end
$var reg 9 B tx_acc [8:0] $end
$upscope $end

$scope module uart_tx $end
$var parameter 2 C STATE_IDLE $end
$var parameter 2 D STATE_START $end
$var parameter 2 E STATE_DATA $end
$var parameter 2 F STATE_STOP $end
$var wire 1 0 din [7] $end
$var wire 1 1 din [6] $end
$var wire 1 2 din [5] $end
$var wire 1 3 din [4] $end
$var wire 1 4 din [3] $end
$var wire 1 5 din [2] $end
$var wire 1 6 din [1] $end
$var wire 1 7 din [0] $end
$var wire 1 8 wr_en $end
$var wire 1 9 clk_50m $end
$var wire 1 < clken $end
$var reg 1 G tx $end
$var wire 1 $ tx_busy $end
$var reg 8 H data [7:0] $end
$var reg 3 I bitpos [2:0] $end
$var reg 2 J state [1:0] $end
$upscope $end

$scope module uart_rx $end
$var parameter 2 K RX_STATE_START $end
$var parameter 2 L RX_STATE_DATA $end
$var parameter 2 M RX_STATE_STOP $end
$var wire 1 . rx $end
$var wire 1 : rdy_clr $end
$var wire 1 9 clk_50m $end
$var wire 1 ; clken $end
$var reg 1 N rdy $end
$var reg 8 O data [7:0] $end
$var reg 2 P state [1:0] $end
$var reg 4 Q sample [3:0] $end
$var reg 4 R bitpos [3:0] $end
$var reg 8 S scratch [7:0] $end
$upscope $end
$upscope $end
$upscope $end
$enddefinitions $end
#0
$dumpvars
b0 !
0"
1#
0/
b0 A
b0 B
1G
b0 H
b0 I
b0 J
0N
b0 O
b0 P
b0 Q
b0 R
b0 S
b11011 =
b110110010 >
b101 ?
b1001 @
b0 C
b1 D
b10 E
b11 F
b0 K
b1 L
b10 M
0$
0%
0-
0,
0+
0*
0)
0(
0'
0&
1.
1;
1<
0:
09
18
07
06
05
04
03
02
01
00
$end
#1
1"
19
b1 A
b1 B
b1 J
0;
0<
1$
#2
0"
09
0#
08
#3
1"
19
b10 A
b10 B
#4
0"
09
#5
1"
19
b11 A
b11 B
#6
0"
09
#7
1"
19
b100 A
b100 B
#8
0"
09
#9
1"
19
b101 A
b101 B
#10
0"
09
#11
1"
19
b110 A
b110 B
#12
0"
09
#13
1"
19
b111 A
b111 B
#14
0"
09
#15
1"
19
b1000 A
b1000 B
#16
0"
09
#17
1"
19
b1001 A
b1001 B
#18
0"
09
#19
1"
19
b1010 A
b1010 B
#20
0"
09
#21
1"
19
b1011 A
b1011 B
#22
0"
09
#23
1"
19
b1100 A
b1100 B
#24
0"
09
#25
1"
19
b1101 A
b1101 B
#26
0"
09
#27
1"
19
b1110 A
b1110 B
#28
0"
09
#29
1"
19
b1111 A
b1111 B
#30
0"
09
#31
1"
19
b10000 A
b10000 B
#32
0"
09
#33
1"
19
b10001 A
b10001 B
#34
0"
09
#35
1"
19
b10010 A
b10010 B
#36
0"
09
#37
1"
19
b10011 A
b10011 B
#38
0"
09
#39
1"
19
b10100 A
b10100 B
#40
0"
09
#41
1"
19
b10101 A
b10101 B
#42
0"
09
#43
1"
19
b10110 A
b10110 B
#44
0"
09
#45
1"
19
b10111 A
b10111 B
#46
0"
09
#47
1"
19
b11000 A
b11000 B
#48
0"
09
#49
1"
19
b11001 A
b11001 B
#50
0"
09
#51
1"
19
b11010 A
b11010 B
#52
0"
09
#53
1"
19
b11011 A
b11011 B
#54
0"
09
#55
1"
19
b0 A
b11100 B
1;
#56
0"
09
#57
1"
19
b1 A
b11101 B
0;
#58
0"
09
#59
1"
19
b10 A
b11110 B
#60
0"
09
#61
1"
19
b11 A
b11111 B
#62
0"
09
#63
1"
19
b100 A
b100000 B
#64
0"
09
#65
1"
19
b101 A
b100001 B
#66
0"
09
#67
1"
19
b110 A
b100010 B
#68
0"
09
#69
1"
19
b111 A
b100011 B
#70
0"
09
#71
1"
19
b1000 A
b100100 B
#72
0"
09
#73
1"
19
b1001 A
b100101 B
#74
0"
09
#75
1"
19
b1010 A
b100110 B
#76
0"
09
#77
1"
19
b1011 A
b100111 B
#78
0"
09
#79
1"
19
b1100 A
b101000 B
#80
0"
09
#81
1"
19
b1101 A
b101001 B
#82
0"
09
#83
1"
19
b1110 A
b101010 B
#84
0"
09
#85
1"
19
b1111 A
b101011 B
#86
0"
09
#87
1"
19
b10000 A
b101100 B
#88
0"
09
#89
1"
19
b10001 A
b101101 B
#90
0"
09
#91
1"
19
b10010 A
b101110 B
#92
0"
09
#93
1"
19
b10011 A
b101111 B
#94
0"
09
#95
1"
19
b10100 A
b110000 B
#96
0"
09
#97
1"
19
b10101 A
b110001 B
#98
0"
09
#99
1"
19
b10110 A
b110010 B
#100
0"
09
#101
1"
19
b10111 A
b110011 B
#102
0"
09
#103
1"
19
b11000 A
b110100 B
#104
0"
09
#105
1"
19
b11001 A
b110101 B
#106
0"
09
#107
1"
19
b11010 A
b110110 B
#108
0"
09
#109
1"
19
b11011 A
b110111 B
#110
0"
09
#111
1"
19
b0 A
b111000 B
1;
#112
0"
09
#113
1"
19
b1 A
b111001 B
0;
#114
0"
09
#115
1"
19
b10 A
b111010 B
#116
0"
09
#117
1"
19
b11 A
b111011 B
#118
0"
09
#119
1"
19
b100 A
b111100 B
#120
0"
09
#121
1"
19
b101 A
b111101 B
#122
0"
09
#123
1"
19
b110 A
b111110 B
#124
0"
09
#125
1"
19
b111 A
b111111 B
#126
0"
09
#127
1"
19
b1000 A
b1000000 B
#128
0"
09
#129
1"
19
b1001 A
b1000001 B
#130
0"
09
#131
1"
19
b1010 A
b1000010 B
#132
0"
09
#133
1"
19
b1011 A
b1000011 B
#134
0"
09
#135
1"
19
b1100 A
b1000100 B
#136
0"
09
#137
1"
19
b1101 A
b1000101 B
#138
0"
09
#139
1"
19
b1110 A
b1000110 B
#140
0"
09
#141
1"
19
b1111 A
b1000111 B
#142
0"
09
#143
1"
19
b10000 A
b1001000 B
#144
0"
09
#145
1"
19
b10001 A
b1001001 B
#146
0"
09
#147
1"
19
b10010 A
b1001010 B
#148
0"
09
#149
1"
19
b10011 A
b1001011 B
#150
0"
09
#151
1"
19
b10100 A
b1001100 B
#152
0"
09
#153
1"
19
b10101 A
b1001101 B
#154
0"
09
#155
1"
19
b10110 A
b1001110 B
#156
0"
09
#157
1"
19
b10111 A
b1001111 B
#158
0"
09
#159
1"
19
b11000 A
b1010000 B
#160
0"
09
#161
1"
19
b11001 A
b1010001 B
#162
0"
09
#163
1"
19
b11010 A
b1010010 B
#164
0"
09
#165
1"
19
b11011 A
b1010011 B
#166
0"
09
#167
1"
19
b0 A
b1010100 B
1;
#168
0"
09
#169
1"
19
b1 A
b1010101 B
0;
#170
0"
09
#171
1"
19
b10 A
b1010110 B
#172
0"
09
#173
1"
19
b11 A
b1010111 B
#174
0"
09
#175
1"
19
b100 A
b1011000 B
#176
0"
09
#177
1"
19
b101 A
b1011001 B
#178
0"
09
#179
1"
19
b110 A
b1011010 B
#180
0"
09
#181
1"
19
b111 A
b1011011 B
#182
0"
09
#183
1"
19
b1000 A
b1011100 B
#184
0"
09
#185
1"
19
b1001 A
b1011101 B
#186
0"
09
#187
1"
19
b1010 A
b1011110 B
#188
0"
09
#189
1"
19
b1011 A
b1011111 B
#190
0"
09
#191
1"
19
b1100 A
b1100000 B
#192
0"
09
#193
1"
19
b1101 A
b1100001 B
#194
0"
09
#195
1"
19
b1110 A
b1100010 B
#196
0"
09
#197
1"
19
b1111 A
b1100011 B
#198
0"
09
#199
1"
19
b10000 A
b1100100 B
#200
0"
09
#201
1"
19
b10001 A
b1100101 B
#202
0"
09
#203
1"
19
b10010 A
b1100110 B
#204
0"
09
#205
1"
19
b10011 A
b1100111 B
#206
0"
09
#207
1"
19
b10100 A
b1101000 B
#208
0"
09
#209
1"
19
b10101 A
b1101001 B
#210
0"
09
#211
1"
19
b10110 A
b1101010 B
#212
0"
09
#213
1"
19
b10111 A
b1101011 B
#214
0"
09
#215
1"
19
b11000 A
b1101100 B
#216
0"
09
#217
1"
19
b11001 A
b1101101 B
#218
0"
09
#219
1"
19
b11010 A
b1101110 B
#220
0"
09
#221
1"
19
b11011 A
b1101111 B
#222
0"
09
#223
1"
19
b0 A
b1110000 B
1;
#224
0"
09
#225
1"
19
b1 A
b1110001 B
0;
#226
0"
09
#227
1"
19
b10 A
b1110010 B
#228
0"
09
#229
1"
19
b11 A
b1110011 B
#230
0"
09
#231
1"
19
b100 A
b1110100 B
#232
0"
09
#233
1"
19
b101 A
b1110101 B
#234
0"
09
#235
1"
19
b110 A
b1110110 B
#236
0"
09
#237
1"
19
b111 A
b1110111 B
#238
0"
09
#239
1"
19
b1000 A
b1111000 B
#240
0"
09
#241
1"
19
b1001 A
b1111001 B
#242
0"
09
#243
1"
19
b1010 A
b1111010 B
#244
0"
09
#245
1"
19
b1011 A
b1111011 B
#246
0"
09
#247
1"
19
b1100 A
b1111100 B
#248
0"
09
#249
1"
19
b1101 A
b1111101 B
#250
0"
09
#251
1"
19
b1110 A
b1111110 B
#252
0"
09
#253
1"
19
b1111 A
b1111111 B
#254
0"
09
#255
1"
19
b10000 A
b10000000 B
#256
0"
09
#257
1"
19
b10001 A
b10000001 B
#258
0"
09
#259
1"
19
b10010 A
b10000010 B
#260
0"
09
#261
1"
19
b10011 A
b10000011 B
#262
0"
09
#263
1"
19
b10100 A
b10000100 B
#264
0"
09
#265
1"
19
b10101 A
b10000101 B
#266
0"
09
#267
1"
19
b10110 A
b10000110 B
#268
0"
09
#269
1"
19
b10111 A
b10000111 B
#270
0"
09
#271
1"
19
b11000 A
b10001000 B
#272
0"
09
#273
1"
19
b11001 A
b10001001 B
#274
0"
09
#275
1"
19
b11010 A
b10001010 B
#276
0"
09
#277
1"
19
b11011 A
b10001011 B
#278
0"
09
#279
1"
19
b0 A
b10001100 B
1;
#280
0"
09
#281
1"
19
b1 A
b10001101 B
0;
#282
0"
09
#283
1"
19
b10 A
b10001110 B
#284
0"
09
#285
1"
19
b11 A
b10001111 B
#286
0"
09
#287
1"
19
b100 A
b10010000 B
#288
0"
09
#289
1"
19
b101 A
b10010001 B
#290
0"
09
#291
1"
19
b110 A
b10010010 B
#292
0"
09
#293
1"
19
b111 A
b10010011 B
#294
0"
09
#295
1"
19
b1000 A
b10010100 B
#296
0"
09
#297
1"
19
b1001 A
b10010101 B
#298
0"
09
#299
1"
19
b1010 A
b10010110 B
#300
0"
09
#301
1"
19
b1011 A
b10010111 B
#302
0"
09
#303
1"
19
b1100 A
b10011000 B
#304
0"
09
#305
1"
19
b1101 A
b10011001 B
#306
0"
09
#307
1"
19
b1110 A
b10011010 B
#308
0"
09
#309
1"
19
b1111 A
b10011011 B
#310
0"
09
#311
1"
19
b10000 A
b10011100 B
#312
0"
09
#313
1"
19
b10001 A
b10011101 B
#314
0"
09
#315
1"
19
b10010 A
b10011110 B
#316
0"
09
#317
1"
19
b10011 A
b10011111 B
#318
0"
09
#319
1"
19
b10100 A
b10100000 B
#320
0"
09
#321
1"
19
b10101 A
b10100001 B
#322
0"
09
#323
1"
19
b10110 A
b10100010 B
#324
0"
09
#325
1"
19
b10111 A
b10100011 B
#326
0"
09
#327
1"
19
b11000 A
b10100100 B
#328
0"
09
#329
1"
19
b11001 A
b10100101 B
#330
0"
09
#331
1"
19
b11010 A
b10100110 B
#332
0"
09
#333
1"
19
b11011 A
b10100111 B
#334
0"
09
#335
1"
19
b0 A
b10101000 B
1;
#336
0"
09
#337
1"
19
b1 A
b10101001 B
0;
#338
0"
09
#339
1"
19
b10 A
b10101010 B
#340
0"
09
#341
1"
19
b11 A
b10101011 B
#342
0"
09
#343
1"
19
b100 A
b10101100 B
#344
0"
09
#345
1"
19
b101 A
b10101101 B
#346
0"
09
#347
1"
19
b110 A
b10101110 B
#348
0"
09
#349
1"
19
b111 A
b10101111 B
#350
0"
09
#351
1"
19
b1000 A
b10110000 B
#352
0"
09
#353
1"
19
b1001 A
b10110001 B
#354
0"
09
#355
1"
19
b1010 A
b10110010 B
#356
0"
09
#357
1"
19
b1011 A
b10110011 B
#358
0"
09
#359
1"
19
b1100 A
b10110100 B
#360
0"
09
#361
1"
19
b1101 A
b10110101 B
#362
0"
09
#363
1"
19
b1110 A
b10110110 B
#364
0"
09
#365
1"
19
b1111 A
b10110111 B
#366
0"
09
#367
1"
19
b10000 A
b10111000 B
#368
0"
09
#369
1"
19
b10001 A
b10111001 B
#370
0"
09
#371
1"
19
b10010 A
b10111010 B
#372
0"
09
#373
1"
19
b10011 A
b10111011 B
#374
0"
09
#375
1"
19
b10100 A
b10111100 B
#376
0"
09
#377
1"
19
b10101 A
b10111101 B
#378
0"
09
#379
1"
19
b10110 A
b10111110 B
#380
0"
09
#381
1"
19
b10111 A
b10111111 B
#382
0"
09
#383
1"
19
b11000 A
b11000000 B
#384
0"
09
#385
1"
19
b11001 A
b11000001 B
#386
0"
09
#387
1"
19
b11010 A
b11000010 B
#388
0"
09
#389
1"
19
b11011 A
b11000011 B
#390
0"
09
#391
1"
19
b0 A
b11000100 B
1;
#392
0"
09
#393
1"
19
b1 A
b11000101 B
0;
#394
0"
09
#395
1"
19
b10 A
b11000110 B
#396
0"
09
#397
1"
19
b11 A
b11000111 B
#398
0"
09
#399
1"
19
b100 A
b11001000 B
#400
0"
09
#401
1"
19
b101 A
b11001001 B
#402
0"
09
#403
1"
19
b110 A
b11001010 B
#404
0"
09
#405
1"
19
b111 A
b11001011 B
#406
0"
09
#407
1"
19
b1000 A
b11001100 B
#408
0"
09
#409
1"
19
b1001 A
b11001101 B
#410
0"
09
#411
1"
19
b1010 A
b11001110 B
#412
0"
09
#413
1"
19
b1011 A
b11001111 B
#414
0"
09
#415
1"
19
b1100 A
b11010000 B
#416
0"
09
#417
1"
19
b1101 A
b11010001 B
#418
0"
09
#419
1"
19
b1110 A
b11010010 B
#420
0"
09
#421
1"
19
b1111 A
b11010011 B
#422
0"
09
#423
1"
19
b10000 A
b11010100 B
#424
0"
09
#425
1"
19
b10001 A
b11010101 B
#426
0"
09
#427
1"
19
b10010 A
b11010110 B
#428
0"
09
#429
1"
19
b10011 A
b11010111 B
#430
0"
09
#431
1"
19
b10100 A
b11011000 B
#432
0"
09
#433
1"
19
b10101 A
b11011001 B
#434
0"
09
#435
1"
19
b10110 A
b11011010 B
#436
0"
09
#437
1"
19
b10111 A
b11011011 B
#438
0"
09
#439
1"
19
b11000 A
b11011100 B
#440
0"
09
#441
1"
19
b11001 A
b11011101 B
#442
0"
09
#443
1"
19
b11010 A
b11011110 B
#444
0"
09
#445
1"
19
b11011 A
b11011111 B
#446
0"
09
#447
1"
19
b0 A
b11100000 B
1;
#448
0"
09
#449
1"
19
b1 A
b11100001 B
0;
#450
0"
09
#451
1"
19
b10 A
b11100010 B
#452
0"
09
#453
1"
19
b11 A
b11100011 B
#454
0"
09
#455
1"
19
b100 A
b11100100 B
#456
0"
09
#457
1"
19
b101 A
b11100101 B
#458
0"
09
#459
1"
19
b110 A
b11100110 B
#460
0"
09
#461
1"
19
b111 A
b11100111 B
#462
0"
09
#463
1"
19
b1000 A
b11101000 B
#464
0"
09
#465
1"
19
b1001 A
b11101001 B
#466
0"
09
#467
1"
19
b1010 A
b11101010 B
#468
0"
09
#469
1"
19
b1011 A
b11101011 B
#470
0"
09
#471
1"
19
b1100 A
b11101100 B
#472
0"
09
#473
1"
19
b1101 A
b11101101 B
#474
0"
09
#475
1"
19
b1110 A
b11101110 B
#476
0"
09
#477
1"
19
b1111 A
b11101111 B
#478
0"
09
#479
1"
19
b10000 A
b11110000 B
#480
0"
09
#481
1"
19
b10001 A
b11110001 B
#482
0"
09
#483
1"
19
b10010 A
b11110010 B
#484
0"
09
#485
1"
19
b10011 A
b11110011 B
#486
0"
09
#487
1"
19
b10100 A
b11110100 B
#488
0"
09
#489
1"
19
b10101 A
b11110101 B
#490
0"
09
#491
1"
19
b10110 A
b11110110 B
#492
0"
09
#493
1"
19
b10111 A
b11110111 B
#494
0"
09
#495
1"
19
b11000 A
b11111000 B
#496
0"
09
#497
1"
19
b11001 A
b11111001 B
#498
0"
09
#499
1"
19
b11010 A
b11111010 B
#500
0"
09
#501
1"
19
b11011 A
b11111011 B
#502
0"
09
#503
1"
19
b0 A
b11111100 B
1;
#504
0"
09
#505
1"
19
b1 A
b11111101 B
0;
#506
0"
09
#507
1"
19
b10 A
b11111110 B
#508
0"
09
#509
1"
19
b11 A
b11111111 B
#510
0"
09
#511
1"
19
b100 A
b100000000 B
#512
0"
09
#513
1"
19
b101 A
b100000001 B
#514
0"
09
#515
1"
19
b110 A
b100000010 B
#516
0"
09
#517
1"
19
b111 A
b100000011 B
#518
0"
09
#519
1"
19
b1000 A
b100000100 B
#520
0"
09
#521
1"
19
b1001 A
b100000101 B
#522
0"
09
#523
1"
19
b1010 A
b100000110 B
#524
0"
09
#525
1"
19
b1011 A
b100000111 B
#526
0"
09
#527
1"
19
b1100 A
b100001000 B
#528
0"
09
#529
1"
19
b1101 A
b100001001 B
#530
0"
09
#531
1"
19
b1110 A
b100001010 B
#532
0"
09
#533
1"
19
b1111 A
b100001011 B
#534
0"
09
#535
1"
19
b10000 A
b100001100 B
#536
0"
09
#537
1"
19
b10001 A
b100001101 B
#538
0"
09
#539
1"
19
b10010 A
b100001110 B
#540
0"
09
#541
1"
19
b10011 A
b100001111 B
#542
0"
09
#543
1"
19
b10100 A
b100010000 B
#544
0"
09
#545
1"
19
b10101 A
b100010001 B
#546
0"
09
#547
1"
19
b10110 A
b100010010 B
#548
0"
09
#549
1"
19
b10111 A
b100010011 B
#550
0"
09
#551
1"
19
b11000 A
b100010100 B
#552
0"
09
#553
1"
19
b11001 A
b100010101 B
#554
0"
09
#555
1"
19
b11010 A
b100010110 B
#556
0"
09
#557
1"
19
b11011 A
b100010111 B
#558
0"
09
#559
1"
19
b0 A
b100011000 B
1;
#560
0"
09
#561
1"
19
b1 A
b100011001 B
0;
#562
0"
09
#563
1"
19
b10 A
b100011010 B
#564
0"
09
#565
1"
19
b11 A
b100011011 B
#566
0"
09
#567
1"
19
b100 A
b100011100 B
#568
0"
09
#569
1"
19
b101 A
b100011101 B
#570
0"
09
#571
1"
19
b110 A
b100011110 B
#572
0"
09
#573
1"
19
b111 A
b100011111 B
#574
0"
09
#575
1"
19
b1000 A
b100100000 B
#576
0"
09
#577
1"
19
b1001 A
b100100001 B
#578
0"
09
#579
1"
19
b1010 A
b100100010 B
#580
0"
09
#581
1"
19
b1011 A
b100100011 B
#582
0"
09
#583
1"
19
b1100 A
b100100100 B
#584
0"
09
#585
1"
19
b1101 A
b100100101 B
#586
0"
09
#587
1"
19
b1110 A
b100100110 B
#588
0"
09
#589
1"
19
b1111 A
b100100111 B
#590
0"
09
#591
1"
19
b10000 A
b100101000 B
#592
0"
09
#593
1"
19
b10001 A
b100101001 B
#594
0"
09
#595
1"
19
b10010 A
b100101010 B
#596
0"
09
#597
1"
19
b10011 A
b100101011 B
#598
0"
09
#599
1"
19
b10100 A
b100101100 B
#600
0"
09
#601
1"
19
b10101 A
b100101101 B
#602
0"
09
#603
1"
19
b10110 A
b100101110 B
#604
0"
09
#605
1"
19
b10111 A
b100101111 B
#606
0"
09
#607
1"
19
b11000 A
b100110000 B
#608
0"
09
#609
1"
19
b11001 A
b100110001 B
#610
0"
09
#611
1"
19
b11010 A
b100110010 B
#612
0"
09
#613
1"
19
b11011 A
b100110011 B
#614
0"
09
#615
1"
19
b0 A
b100110100 B
1;
#616
0"
09
#617
1"
19
b1 A
b100110101 B
0;
#618
0"
09
#619
1"
19
b10 A
b100110110 B
#620
0"
09
#621
1"
19
b11 A
b100110111 B
#622
0"
09
#623
1"
19
b100 A
b100111000 B
#624
0"
09
#625
1"
19
b101 A
b100111001 B
#626
0"
09
#627
1"
19
b110 A
b100111010 B
#628
0"
09
#629
1"
19
b111 A
b100111011 B
#630
0"
09
#631
1"
19
b1000 A
b100111100 B
#632
0"
09
#633
1"
19
b1001 A
b100111101 B
#634
0"
09
#635
1"
19
b1010 A
b100111110 B
#636
0"
09
#637
1"
19
b1011 A
b100111111 B
#638
0"
09
#639
1"
19
b1100 A
b101000000 B
#640
0"
09
#641
1"
19
b1101 A
b101000001 B
#642
0"
09
#643
1"
19
b1110 A
b101000010 B
#644
0"
09
#645
1"
19
b1111 A
b101000011 B
#646
0"
09
#647
1"
19
b10000 A
b101000100 B
#648
0"
09
#649
1"
19
b10001 A
b101000101 B
#650
0"
09
#651
1"
19
b10010 A
b101000110 B
#652
0"
09
#653
1"
19
b10011 A
b101000111 B
#654
0"
09
#655
1"
19
b10100 A
b101001000 B
#656
0"
09
#657
1"
19
b10101 A
b101001001 B
#658
0"
09
#659
1"
19
b10110 A
b101001010 B
#660
0"
09
#661
1"
19
b10111 A
b101001011 B
#662
0"
09
#663
1"
19
b11000 A
b101001100 B
#664
0"
09
#665
1"
19
b11001 A
b101001101 B
#666
0"
09
#667
1"
19
b11010 A
b101001110 B
#668
0"
09
#669
1"
19
b11011 A
b101001111 B
#670
0"
09
#671
1"
19
b0 A
b101010000 B
1;
#672
0"
09
#673
1"
19
b1 A
b101010001 B
0;
#674
0"
09
#675
1"
19
b10 A
b101010010 B
#676
0"
09
#677
1"
19
b11 A
b101010011 B
#678
0"
09
#679
1"
19
b100 A
b101010100 B
#680
0"
09
#681
1"
19
b101 A
b101010101 B
#682
0"
09
#683
1"
19
b110 A
b101010110 B
#684
0"
09
#685
1"
19
b111 A
b101010111 B
#686
0"
09
#687
1"
19
b1000 A
b101011000 B
#688
0"
09
#689
1"
19
b1001 A
b101011001 B
#690
0"
09
#691
1"
19
b1010 A
b101011010 B
#692
0"
09
#693
1"
19
b1011 A
b101011011 B
#694
0"
09
#695
1"
19
b1100 A
b101011100 B
#696
0"
09
#697
1"
19
b1101 A
b101011101 B
#698
0"
09
#699
1"
19
b1110 A
b101011110 B
#700
0"
09
#701
1"
19
b1111 A
b101011111 B
#702
0"
09
#703
1"
19
b10000 A
b101100000 B
#704
0"
09
#705
1"
19
b10001 A
b101100001 B
#706
0"
09
#707
1"
19
b10010 A
b101100010 B
#708
0"
09
#709
1"
19
b10011 A
b101100011 B
#710
0"
09
#711
1"
19
b10100 A
b101100100 B
#712
0"
09
#713
1"
19
b10101 A
b101100101 B
#714
0"
09
#715
1"
19
b10110 A
b101100110 B
#716
0"
09
#717
1"
19
b10111 A
b101100111 B
#718
0"
09
#719
1"
19
b11000 A
b101101000 B
#720
0"
09
#721
1"
19
b11001 A
b101101001 B
#722
0"
09
#723
1"
19
b11010 A
b101101010 B
#724
0"
09
#725
1"
19
b11011 A
b101101011 B
#726
0"
09
#727
1"
19
b0 A
b101101100 B
1;
#728
0"
09
#729
1"
19
b1 A
b101101101 B
0;
#730
0"
09
#731
1"
19
b10 A
b101101110 B
#732
0"
09
#733
1"
19
b11 A
b101101111 B
#734
0"
09
#735
1"
19
b100 A
b101110000 B
#736
0"
09
#737
1"
19
b101 A
b101110001 B
#738
0"
09
#739
1"
19
b110 A
b101110010 B
#740
0"
09
#741
1"
19
b111 A
b101110011 B
#742
0"
09
#743
1"
19
b1000 A
b101110100 B
#744
0"
09
#745
1"
19
b1001 A
b101110101 B
#746
0"
09
#747
1"
19
b1010 A
b101110110 B
#748
0"
09
#749
1"
19
b1011 A
b101110111 B
#750
0"
09
#751
1"
19
b1100 A
b101111000 B
#752
0"
09
#753
1"
19
b1101 A
b101111001 B
#754
0"
09
#755
1"
19
b1110 A
b101111010 B
#756
0"
09
#757
1"
19
b1111 A
b101111011 B
#758
0"
09
#759
1"
19
b10000 A
b101111100 B
#760
0"
09
#761
1"
19
b10001 A
b101111101 B
#762
0"
09
#763
1"
19
b10010 A
b101111110 B
#764
0"
09
#765
1"
19
b10011 A
b101111111 B
#766
0"
09
#767
1"
19
b10100 A
b110000000 B
#768
0"
09
#769
1"
19
b10101 A
b110000001 B
#770
0"
09
#771
1"
19
b10110 A
b110000010 B
#772
0"
09
#773
1"
19
b10111 A
b110000011 B
#774
0"
09
#775
1"
19
b11000 A
b110000100 B
#776
0"
09
#777
1"
19
b11001 A
b110000101 B
#778
0"
09
#779
1"
19
b11010 A
b110000110 B
#780
0"
09
#781
1"
19
b11011 A
b110000111 B
#782
0"
09
#783
1"
19
b0 A
b110001000 B
1;
#784
0"
09
#785
1"
19
b1 A
b110001001 B
0;
#786
0"
09
#787
1"
19
b10 A
b110001010 B
#788
0"
09
#789
1"
19
b11 A
b110001011 B
#790
0"
09
#791
1"
19
b100 A
b110001100 B
#792
0"
09
#793
1"
19
b101 A
b110001101 B
#794
0"
09
#795
1"
19
b110 A
b110001110 B
#796
0"
09
#797
1"
19
b111 A
b110001111 B
#798
0"
09
#799
1"
19
b1000 A
b110010000 B
#800
0"
09
#801
1"
19
b1001 A
b110010001 B
#802
0"
09
#803
1"
19
b1010 A
b110010010 B
#804
0"
09
#805
1"
19
b1011 A
b110010011 B
#806
0"
09
#807
1"
19
b1100 A
b110010100 B
#808
0"
09
#809
1"
19
b1101 A
b110010101 B
#810
0"
09
#811
1"
19
b1110 A
b110010110 B
#812
0"
09
#813
1"
19
b1111 A
b110010111 B
#814
0"
09
#815
1"
19
b10000 A
b110011000 B
#816
0"
09
#817
1"
19
b10001 A
b110011001 B
#818
0"
09
#819
1"
19
b10010 A
b110011010 B
#820
0"
09
#821
1"
19
b10011 A
b110011011 B
#822
0"
09
#823
1"
19
b10100 A
b110011100 B
#824
0"
09
#825
1"
19
b10101 A
b110011101 B
#826
0"
09
#827
1"
19
b10110 A
b110011110 B
#828
0"
09
#829
1"
19
b10111 A
b110011111 B
#830
0"
09
#831
1"
19
b11000 A
b110100000 B
#832
0"
09
#833
1"
19
b11001 A
b110100001 B
#834
0"
09
#835
1"
19
b11010 A
b110100010 B
#836
0"
09
#837
1"
19
b11011 A
b110100011 B
#838
0"
09
#839
1"
19
b0 A
b110100100 B
1;
#840
0"
09
#841
1"
19
b1 A
b110100101 B
0;
#842
0"
09
#843
1"
19
b10 A
b110100110 B
#844
0"
09
#845
1"
19
b11 A
b110100111 B
#846
0"
09
#847
1"
19
b100 A
b110101000 B
#848
0"
09
#849
1"
19
b101 A
b110101001 B
#850
0"
09
#851
1"
19
b110 A
b110101010 B
#852
0"
09
#853
1"
19
b111 A
b110101011 B
#854
0"
09
#855
1"
19
b1000 A
b110101100 B
#856
0"
09
#857
1"
19
b1001 A
b110101101 B
#858
0"
09
#859
1"
19
b1010 A
b110101110 B
#860
0"
09
#861
1"
19
b1011 A
b110101111 B
#862
0"
09
#863
1"
19
b1100 A
b110110000 B
#864
0"
09
#865
1"
19
b1101 A
b110110001 B
#866
0"
09
#867
1"
19
b1110 A
b110110010 B
#868
0"
09
#869
1"
19
b1111 A
b0 B
1<
#870
0"
09
#871
1"
19
b10000 A
b1 B
0G
b10 J
0<
0.
#872
0"
09
#873
1"
19
b10001 A
b10 B
#874
0"
09
#875
1"
19
b10010 A
b11 B
#876
0"
09
#877
1"
19
b10011 A
b100 B
#878
0"
09
#879
1"
19
b10100 A
b101 B
#880
0"
09
#881
1"
19
b10101 A
b110 B
#882
0"
09
#883
1"
19
b10110 A
b111 B
#884
0"
09
#885
1"
19
b10111 A
b1000 B
#886
0"
09
#887
1"
19
b11000 A
b1001 B
#888
0"
09
#889
1"
19
b11001 A
b1010 B
#890
0"
09
#891
1"
19
b11010 A
b1011 B
#892
0"
09
#893
1"
19
b11011 A
b1100 B
#894
0"
09
#895
1"
19
b0 A
b1101 B
1;
#896
0"
09
#897
1"
19
b1 A
b1110 B
b1 Q
0;
#898
0"
09
#899
1"
19
b10 A
b1111 B
#900
0"
09
#901
1"
19
b11 A
b10000 B
#902
0"
09
#903
1"
19
b100 A
b10001 B
#904
0"
09
#905
1"
19
b101 A
b10010 B
#906
0"
09
#907
1"
19
b110 A
b10011 B
#908
0"
09
#909
1"
19
b111 A
b10100 B
#910
0"
09
#911
1"
19
b1000 A
b10101 B
#912
0"
09
#913
1"
19
b1001 A
b10110 B
#914
0"
09
#915
1"
19
b1010 A
b10111 B
#916
0"
09
